<?xml version="1.0" encoding="UTF-8" standalone="no"?>
<svg
   id="Capa_1"
   data-name="Capa 1"
   viewBox="0 0 467.6983 262.39728"
   version="1.1"
   sodipodi:docname="vector.svg"
   width="467.6983"
   height="262.39728"
   xmlns:inkscape="http://www.inkscape.org/namespaces/inkscape"
   xmlns:sodipodi="http://sodipodi.sourceforge.net/DTD/sodipodi-0.dtd"
   xmlns="http://www.w3.org/2000/svg"
   xmlns:svg="http://www.w3.org/2000/svg">
  <sodipodi:namedview
     id="namedview194"
     pagecolor="#ffffff"
     bordercolor="#000000"
     borderopacity="0.25"
     inkscape:showpageshadow="2"
     inkscape:pageopacity="0.0"
     inkscape:pagecheckerboard="0"
     inkscape:deskcolor="#d1d1d1"
     showgrid="false" />
  <defs
     id="defs49">
    <style
       id="style2">
      .cls-1 {
        clip-path: url(#clippath-11);
      }

      .cls-2 {
        clip-path: url(#clippath-2);
      }

      .cls-3 {
        clip-path: url(#clippath-13);
      }

      .cls-4 {
        clip-path: url(#clippath-15);
      }

      .cls-5 {
        clip-path: url(#clippath-6);
      }

      .cls-6 {
        stroke-linecap: round;
      }

      .cls-6, .cls-7, .cls-8, .cls-9, .cls-10, .cls-11 {
        fill: none;
      }

      .cls-6, .cls-8, .cls-9, .cls-10, .cls-11 {
        stroke-miterlimit: 10;
      }

      .cls-6, .cls-10 {
        stroke: #882742;
        stroke-width: .71px;
      }

      .cls-12 {
        fill: #302e2b;
      }

      .cls-12, .cls-7, .cls-13, .cls-14, .cls-15, .cls-16, .cls-17, .cls-18, .cls-19, .cls-20 {
        stroke-width: 0px;
      }

      .cls-21 {
        clip-path: url(#clippath-7);
      }

      .cls-13 {
        fill: #a39e88;
      }

      .cls-22 {
        clip-path: url(#clippath-4);
      }

      .cls-14 {
        fill: #6f7073;
      }

      .cls-23 {
        clip-path: url(#clippath-12);
      }

      .cls-15 {
        fill: #fff;
      }

      .cls-8 {
        stroke: #99a2ac;
      }

      .cls-8, .cls-11 {
        stroke-width: 1.01px;
      }

      .cls-16 {
        fill: #ba9f7a;
      }

      .cls-24 {
        clip-path: url(#clippath-9);
      }

      .cls-17 {
        fill: #c7b587;
      }

      .cls-18 {
        fill: #882742;
      }

      .cls-19 {
        fill: #55575a;
      }

      .cls-20 {
        fill: #c3c3c3;
      }

      .cls-25 {
        clip-path: url(#clippath-3);
      }

      .cls-9 {
        stroke: #fff;
        stroke-width: 2.02px;
      }

      .cls-26 {
        clip-path: url(#clippath-8);
      }

      .cls-27 {
        clip-path: url(#clippath-14);
      }

      .cls-28 {
        clip-path: url(#clippath-5);
      }

      .cls-29 {
        clip-path: url(#clippath-10);
      }

      .cls-11 {
        stroke: #d6c8a3;
      }
    </style>
    <clipPath
       id="clippath-2">
      <polygon
         class="cls-7"
         points="1299.13,340.17 811.3,340.17 811.3,663.35 1299.06,663.35 "
         id="polygon7" />
    </clipPath>
    <clipPath
       id="clippath-3">
      <rect
         class="cls-7"
         x="257.39999"
         width="1224"
         height="792"
         id="rect10"
         y="0" />
    </clipPath>
    <clipPath
       id="clippath-4">
      <path
         class="cls-7"
         d="m 1092.33,489.58 c -11.23,1.1 -17.25,6.57 -21.63,13.14 -4.38,6.57 -15.75,23.41 -15.75,23.41 l 11.79,9.15 c 2.19,-1.92 18.47,-21.34 18.47,-21.34 0,0 1.64,3.83 4.65,13.42 3.01,9.58 7.8,25.77 7.8,25.77 l 37.41,-0.28 c 0,0 1.62,-7.31 5.27,-20.51 2.57,-9.31 6.7,-16.42 6.7,-16.42 l 13.37,14.63 10.6,-10.72 c 0,0 -7.85,-9.75 -12.77,-17.75 -7.36,-11.97 -13.35,-12.25 -13.35,-12.25 -5.83,-1.91 -13.33,-2.54 -21,-2.54 -12.15,0 -24.69,1.6 -31.57,2.27"
         id="path13" />
    </clipPath>
    <clipPath
       id="clippath-5">
      <rect
         class="cls-7"
         x="257.39999"
         width="1224"
         height="792"
         id="rect16"
         y="0" />
    </clipPath>
    <clipPath
       id="clippath-6">
      <polygon
         class="cls-7"
         points="1299.13,340.17 811.3,340.17 811.3,663.35 1299.06,663.35 "
         id="polygon19" />
    </clipPath>
    <clipPath
       id="clippath-7">
      <rect
         class="cls-7"
         x="257.39999"
         width="1224"
         height="792"
         id="rect22"
         y="0" />
    </clipPath>
    <clipPath
       id="clippath-8">
      <path
         class="cls-7"
         d="m 1039.68,546.83 c -1.95,4.12 -2.6,4.99 0,7.38 2.61,2.39 18.67,8.25 35.17,7.16 16.5,-1.08 18.23,-2.17 18.23,-2.17 0,0 4.78,-0.22 5.43,-7.16 0.65,-6.94 -0.87,-10.2 -0.87,-10.2 0,0 -2.17,-0.87 -4.78,0.43 -2.6,1.3 -5.21,7.6 -7.38,9.12 -2.17,1.52 -27.2,-6.23 -27.2,-6.23 l 8.46,-9.87 -11.75,-9.87 c 0,0 -13.35,17.29 -15.31,21.41"
         id="path25" />
    </clipPath>
    <clipPath
       id="clippath-9">
      <rect
         class="cls-7"
         x="257.39999"
         width="1224"
         height="792"
         id="rect28"
         y="0" />
    </clipPath>
    <clipPath
       id="clippath-10">
      <polygon
         class="cls-7"
         points="1299.13,340.17 811.3,340.17 811.3,663.35 1299.06,663.35 "
         id="polygon31" />
    </clipPath>
    <clipPath
       id="clippath-11">
      <rect
         class="cls-7"
         x="257.39999"
         width="1224"
         height="792"
         id="rect34"
         y="0" />
    </clipPath>
    <clipPath
       id="clippath-12">
      <path
         class="cls-7"
         d="m 1188.44,505.96 c 2.09,0.64 5.26,1.93 5.26,1.93 -7.99,14.48 -21.61,50.64 -21.61,50.64 -0.5,-8.44 -8.61,-43.93 -8.05,-45.6 1.19,-3.58 5.07,-6.05 5.07,-6.05 0,0 0.18,-1.62 0.39,-6.56 -0.58,0.2 -4.65,2.38 -5.63,3.39 -1.48,1.52 -3.4,6.56 -4.39,6.93 -6.09,2.24 -16.99,4.41 -20.15,10.76 -1.89,3.82 -3.36,8.06 -3.89,12.34 -1.31,10.57 -1.26,21.27 -2.76,31.82 -0.69,4.82 -1.59,9.58 -3.6,14.04 -1.85,4.12 -4.27,7.99 -5.39,12.4 -2.01,7.95 1.12,22.17 9.93,25.05 2.92,0.96 6.65,1.3 9.4,-0.46 2.39,-1.53 2.27,-3.8 2.8,-6.4 1,-4.83 2.2,-9.64 3.29,-14.45 l 57.57,-0.37 c 4.86,-4.11 -1,-9.66 -1.37,-14.52 0,0 0,0 0,0 -0.22,-2.88 1.24,-6.49 3.9,-7.84 -1.17,6.31 -0.16,16.77 7.41,18.58 2.72,0.65 5.48,0.53 8.19,1.13 1.93,0.43 4.04,0.51 6.01,0.27 4.13,-0.51 7.55,-2.9 6.21,-7.47 -0.39,-1.33 -1.55,-2.37 -1.85,-3.72 -0.42,-1.85 0.03,-4.54 0.52,-6.32 1.15,-4.21 2.01,-6.29 0.29,-10.48 -1.59,-3.86 -3.88,-7.43 -5.21,-11.42 -1.77,-5.34 -3.38,-10.86 -4.57,-16.36 -1.11,-5.14 -1.76,-10.47 -3.79,-15.37 -1.64,-3.94 -3.5,-5.67 -7.15,-7.85 -3.47,-2.07 -7.14,-3.86 -10.86,-5.45 -1.27,-0.54 -4.67,-2.6 -6.14,-2.11 0,0 -1.04,-2.77 -3.03,-5.01 -1.99,-2.24 -7.69,-3.03 -7.69,-3.03 l 0.9,7.55 z"
         id="path37" />
    </clipPath>
    <clipPath
       id="clippath-13">
      <rect
         class="cls-7"
         x="257.39999"
         width="1224"
         height="792"
         id="rect40"
         y="0" />
    </clipPath>
    <clipPath
       id="clippath-14">
      <polygon
         class="cls-7"
         points="1299.13,340.17 811.3,340.17 811.3,663.35 1299.06,663.35 "
         id="polygon43" />
    </clipPath>
    <clipPath
       id="clippath-15">
      <rect
         class="cls-7"
         x="257.39999"
         width="1224"
         height="792"
         id="rect46"
         y="0" />
    </clipPath>
  </defs>
  <g
     class="cls-2"
     clip-path="url(#clippath-2)"
     id="g107"
     transform="translate(-831.57629,-401.91513)">
    <g
       class="cls-25"
       clip-path="url(#clippath-3)"
       id="g105">
      <path
         class="cls-17"
         d="m 933.34,494.02 c 12.48,4.16 15.78,9.44 19.15,17.54 1.68,4.04 1.41,8.58 1.5,12.96 0.44,21.79 10.36,42.28 13.29,63.88 -6.61,0.78 -13.19,1.81 -19.73,3.07 -0.8,6.54 -0.35,13.24 1.33,19.61 -4.53,1.76 -8.08,0.9 -12.94,0.84 -23.66,-0.33 -49.32,1.17 -72.56,0.32 -2.51,-3.17 -1.4,-7 -4.28,-9.83 -5.38,4.31 -15.71,8 -15.82,9.29 -2.54,-5.71 -8.83,-15.33 -9.95,-19.68 -3.32,-12.83 1.43,-20.69 5.09,-28.09 4.95,-10 5.83,-18.8 6.76,-29.92 0.61,-7.3 -0.04,-14.93 2.79,-21.7 2.48,-5.93 7.42,-10.55 12.96,-13.81 5.54,-3.25 10.01,-5.29 18.17,-6.08"
         id="path51" />
      <path
         class="cls-16"
         d="m 919.58,424.61 c 0,0 0.73,6.35 2.21,17.66 1.48,11.31 -2.03,25.44 -7.29,28.28 -3.12,1.68 -1.58,3.16 -1.58,3.16 0,0 2.38,8.65 4.28,14.36 4.76,2.85 15.95,5.54 15.95,5.54 0,0 -1.14,3.08 -4.59,6.72 -6.84,7.23 -17.24,9.88 -26.74,6.92 -7.99,-2.49 -18.87,-6.46 -27.05,-14.48 0,0 17.13,-3.92 18.99,-6.11 1.85,-2.19 1.01,-14.14 0.4,-20.61 -2.52,-3.29 -4.21,-7.03 -5.38,-10.93 -7.75,4.87 -8.56,-11.9 -2.3,-13.11 -0.37,-3.46 -0.51,-5.6 -0.73,-8.62 0,0 0.81,-13.57 12.67,-14.67 11.86,-1.09 21.16,5.9 21.16,5.9"
         id="path53" />
      <path
         class="cls-19"
         d="m 921.34,440.29 c 0.18,-9.6 1.61,-9.03 1.74,-14.78 0.09,-3.96 -0.71,-9.11 -3.38,-11.91 -3.37,-3.52 -9.63,-5.42 -14.46,-5.61 -1.6,-0.07 -4.57,0.53 -5.3,2.51 -0.98,2.65 4.18,2.6 2.71,4.85 -1.03,1.58 -4.33,-1.02 -8.69,1.24 -1.92,0.99 -4.29,3.27 -4.63,6.77 1.31,1.88 14.48,2.23 18.13,2.22 6.76,-0.01 8.18,-1 10.32,0.53 0.31,0.22 3.11,3.29 3.56,14.16"
         id="path55" />
      <path
         class="cls-19"
         d="m 889.89,423.25 c 0,0 0.63,1.36 0.63,7.83 0,6.47 -1.01,15.36 -1.01,15.36 l -3.23,-5.25 c 0,0 -3.74,-10.28 -2.83,-13.14 1.49,-4.73 6.44,-4.79 6.44,-4.79"
         id="path57" />
      <path
         class="cls-15"
         d="m 905.19,456.14 c 0,0 7.84,0.24 11.85,-0.15 0,0 -1.46,3.56 -5.47,3.75 -4.02,0.19 -6.38,-3.61 -6.38,-3.61"
         id="path59" />
      <path
         class="cls-20"
         d="m 862.52,611.69 c 0,0 -6.37,19.79 -3.74,31.36 2.6,11.45 0,29.45 0,29.45 l -3.17,24.94 H 960.2 l -19.94,-85.7 z"
         id="path61" />
      <path
         class="cls-16"
         d="m 864.29,599.31 c 0,0 2.12,14.96 10.88,38.49 l -6.05,14.82 c 0,0 -20.83,-28.25 -25.84,-41.81"
         id="path63" />
      <rect
         class="cls-17"
         x="994.76001"
         y="585.56"
         width="113.97"
         height="129.44"
         id="rect65" />
      <path
         class="cls-13"
         d="m 1028.21,445.18 c 0,0 -4.34,-0.1 -5.42,-7.69 -1.08,-7.59 6.8,-5.92 6.8,-5.92"
         id="path67" />
      <path
         class="cls-13"
         d="m 1055.93,445.18 c 0,0 4.34,-0.1 5.42,-7.69 1.09,-7.59 -6.8,-5.92 -6.8,-5.92"
         id="path69" />
      <path
         class="cls-20"
         d="m 1057.77,472.86 c 0,0 31.54,6.95 34.18,16.57 3.16,11.52 -7.76,136.05 -7.76,136.05 0,0 -6.53,33.22 -18.99,31.52 -18.03,-2.46 -12.81,-65.83 -14.67,-65.85 -4.9,-0.03 -5.44,-0.15 -10.35,-0.17 -0.43,30.57 -1.22,64.91 -20.65,65.77 -20.46,0.91 -17.06,-65.62 -17.57,-65.62 -1.45,0 -9.57,-94.73 -9.57,-94.73 -0.75,-9.05 5.47,-14.14 35.3,-23.84"
         id="path71" />
      <path
         class="cls-13"
         d="m 1027.69,472.56 c 0,0 6.89,-5.32 5.97,-14.62 -0.36,-3.65 -8.63,-9.55 -8.04,-28.42 0.59,-18.87 9.09,-21.1 17.99,-22.11 5.78,-0.66 14.32,2.09 15.33,20.35 1.18,21.23 -6.67,26.52 -7.33,29.4 0,0 -1.81,11.28 6.15,15.71 l -1.18,12.09 c 0,0 -11.2,5.31 -27.42,-0.29 l -1.47,-12.09 z"
         id="path73" />
      <path
         class="cls-18"
         d="m 1029.17,484.65 c 0,0 11.37,94.11 11.13,106.52 h 10.32 l 5.96,-106.23 c 0,0 -16.36,1.67 -27.42,-0.29"
         id="path75" />
      <path
         class="cls-18"
         d="m 1030.53,411.66 c -1.17,2.14 1.81,4.8 4.33,4.98 2.14,0.15 4.51,-1.04 6.31,0.07 1.78,1.1 1.73,3.65 2.11,5.46 0.47,2.26 1.77,3.8 4.09,4.5 2.02,0.61 4.17,0.42 6.27,0.23 1.03,-0.09 2.49,-0.46 3.23,0.49 0.42,0.54 0.54,1.24 0.65,1.92 0.18,1.11 0.36,2.22 0.54,3.34 0.02,0.13 0.05,0.27 0.14,0.37 0.17,0.17 0.48,0.07 0.63,-0.12 0.14,-0.19 0.17,-0.45 0.2,-0.69 0.2,-1.3 1.07,-2.07 1.52,-3.18 0.35,-0.89 0.42,-2.05 0.54,-2.99 0.28,-2.19 0.31,-4.42 -0.02,-6.61 -0.78,-5.23 -3.65,-9.73 -7.86,-12.9 -9.23,-6.96 -18.13,-3.18 -22.69,5.15"
         id="path77" />
      <path
         class="cls-18"
         d="m 1031.96,425.45 c -0.77,0.67 -1.78,0.98 -2.62,1.55 -2.35,1.62 -2.66,3.6 -3.39,6.22 -1.1,3.97 -3.45,-2.38 -3.79,-3.43 -0.51,-1.59 -0.8,-3.34 -0.27,-4.93 0.37,-1.11 1.11,-2.07 1.46,-3.19 0.62,-2.02 -0.14,-4.21 0.05,-6.32 0.29,-3.33 3.24,-6.23 6.58,-6.46 2.61,-0.17 5.09,0.92 7.71,0.48 -1.43,2.27 -3.83,3.88 -4.32,6.66 -0.53,3.04 1.38,7.01 -1.41,9.41"
         id="path79" />
      <path
         class="cls-12"
         d="m 1266.79,444.56 c 0,0 5.97,-2.27 12.64,3.76 5.08,4.6 3.13,12.29 1.92,15.67 -0.27,0.77 -2.43,0.03 -3.76,-0.91 0,0 -11.69,-4.39 -12.82,-17.31"
         id="path81" />
      <polyline
         class="cls-15"
         points="1306.98 615.29 1306.14 599.95 1300.28 600.23 1302.39 626.36 1308.17 626.36"
         id="polyline83" />
      <path
         class="cls-17"
         d="m 1284.85,580.26 c 0,0 7.68,18.16 8.73,28.28 1.05,10.13 -3.8,-15.14 -3.8,-15.14 l 15.14,129.43 h -104.98 c 0,0 6,-107.66 11.23,-143.97 l 73.67,1.4 z"
         id="path85" />
      <path
         class="cls-16"
         d="m 1269.06,484.92 c 0,0 22.48,6.44 29.31,14.05 11.8,13.15 4.5,45.92 11.93,67.87 0.6,1.76 4.04,7.37 4.04,7.37 3.53,4.48 1.19,14.03 -0.48,20.22 -1.55,5.77 -5.66,3.45 -10.41,3.68 l -18.11,-1.74 c 0,0 -4.3,1.62 -10.78,-3.07 -3.78,1.02 -32.82,0.07 -39.95,0.17 -20.12,0.29 -24.21,0.64 -27.41,-0.58 -3.2,-1.23 -16.31,-24.34 -16.31,-24.34 0,0 10.36,-25.71 10.65,-37.79 0.35,-14.71 4.71,-29.12 11.56,-34.69 6.86,-5.57 20.75,-11.77 20.75,-11.77 l 5.59,-5.9 c 0,0 19.42,-1.44 24.22,0.59 1.41,3.43 5.38,5.94 5.38,5.94"
         id="path87" />
      <path
         class="cls-19"
         d="m 1232.34,427.92 c 0,0 -1.09,6.15 -1.09,14.62 0,5.24 1.37,13.39 2.67,17.68 1.38,4.59 3.26,7.6 9.09,7.51 0,0 -1.39,11.47 -1.59,19.84 0,0 16.17,-5.49 20.61,-8.72 0,0 -1,-21.89 0.84,-25.58 3.35,-1.4 3.21,-3.08 4.36,-6.57 1.16,-3.49 0.12,-8.44 -2.38,-6.81 0,0 1.96,-11.29 -1.19,-15.22 -3.14,-3.93 -18.26,-3.88 -23.94,0.2 -5.69,4.08 -7.38,3.06 -7.38,3.06"
         id="path89" />
      <path
         class="cls-12"
         d="m 1232.54,428.02 c -1.03,-3.95 5.57,-12.45 16.5,-13.13 12.08,-0.76 19.79,3.62 20.85,17.98 0,0 0.3,8.46 -2.58,13.59 0.65,-4.78 0.71,-6.03 -1.98,-6.15 -1.2,0.06 -2.03,1.2 -3.46,2.88 -4.62,0.26 -8.57,-8.83 -6.99,-15.74 0,0 0.59,-0.79 -22.32,0.59"
         id="path91" />
      <path
         class="cls-20"
         d="m 1271.63,485.42 c 0,0 -4.89,109.83 -3.5,142.75 h 7.53 c 0,0 -1.61,-87.07 2.32,-140.86 l -6.36,-1.88 z"
         id="path93" />
      <path
         class="cls-20"
         d="m 1267.75,601.73 38.79,1.15 c 0,0 5.92,0.18 6.93,8.2 1.02,8.01 3.12,43.46 3.12,43.46 0,0 1.81,4.77 -4.15,5.05 -7.32,0.33 -36.36,2.72 -36.36,2.72 0,0 -6.06,-0.41 -6.62,-4.53 -1.04,-7.64 -1.71,-56.05 -1.71,-56.05"
         id="path95" />
      <path
         class="cls-19"
         d="m 1237.62,493.9 2.18,5.87 c 0,0 -7.2,54.26 -9.95,74.07 0.28,0.82 6.7,8.71 6.7,8.71 l 9.89,-9.55 -3.29,-73.57 3.37,-4.72 -5.31,-7.58 -3.6,6.77 z"
         id="path97" />
      <path
         class="cls-19"
         d="m 1305.25,587.84 c 0,0 -6.7,29.44 -10.55,46.01 -1.64,7.05 -1.91,11.01 -1.91,11.01 l -1.96,12 c 0,0 -3.45,3.82 -6.55,3.36 -5.71,-0.84 -8.35,1.66 -8.35,1.66 0,0 -2.07,-1.35 -0.41,-4.74 1.66,-3.39 2.69,-6.32 2.69,-6.32 0,0 -2.48,5.42 -4.97,4.97 0,0 -1.35,-1.28 0.68,-3.87 1.84,-2.35 2.93,-11.38 10.49,-16 l -1.03,-48.76 z"
         id="path99" />
      <path
         class="cls-18"
         d="m 1110.71,423.59 c 0,0 -12.37,0.55 -13.46,21.43 -1.1,20.88 -8.79,63.74 -8.79,63.74 l 57.92,-1.02 c 0,0 -11.48,-52.84 -13.4,-61.35 -1.92,-8.52 -3.57,-21.98 -12.91,-22.81 -9.34,-0.82 -9.34,0 -9.34,0"
         id="path101" />
      <path
         class="cls-12"
         d="m 1054.95,526.14 c 0,0 11.37,-16.84 15.75,-23.41 4.38,-6.57 10.41,-12.05 21.63,-13.14 11.23,-1.09 37.51,-4.65 52.57,0.27 0,0 5.99,0.28 13.35,12.25 4.92,8 12.77,17.75 12.77,17.75 l -10.6,10.72 -13.37,-14.63 c 0,0 -4.13,7.11 -6.7,16.42 -3.65,13.2 -5.27,20.51 -5.27,20.51 l -37.42,0.28 c 0,0 -4.79,-16.19 -7.8,-25.77 -3.01,-9.58 -4.65,-13.42 -4.65,-13.42 0,0 -16.28,19.42 -18.47,21.34 l -11.79,-9.15 z"
         id="path103" />
    </g>
  </g>
  <g
     class="cls-22"
     clip-path="url(#clippath-4)"
     id="g113"
     transform="translate(-831.57629,-401.91513)">
    <g
       class="cls-28"
       clip-path="url(#clippath-5)"
       id="g111">
      <path
         class="cls-9"
         d="m 1092.54,489.21 c 0,0 5.08,20.88 25.51,19.66 17.55,-1.05 20.05,-21.09 20.05,-21.09"
         id="path109" />
    </g>
  </g>
  <g
     class="cls-5"
     clip-path="url(#clippath-6)"
     id="g125"
     transform="translate(-831.57629,-401.91513)">
    <g
       class="cls-21"
       clip-path="url(#clippath-7)"
       id="g123">
      <path
         class="cls-17"
         d="m 1093.09,489.57 c 0,0 3.91,18.04 23.24,18.37 17.99,0.31 20.75,-19.99 20.75,-19.99 0,0 -10.27,-0.11 -11.45,-4.22 -1.59,-5.54 -1.74,-18.51 -1.74,-18.51 0,0 8.68,-6.89 8.47,-20.57 -0.22,-13.68 -7.38,-21.49 -16.93,-21.06 -9.55,0.43 -14.54,5.86 -16.06,12.81 -1.52,6.95 -0.47,21.1 8.8,28.99 0,0 -0.12,13.34 -0.99,16.38 -0.87,3.04 -0.07,6.31 -14.09,7.79"
         id="path115" />
      <path
         class="cls-18"
         d="m 1098.99,448.55 c 0,0 -0.75,-12.06 12.52,-17.67 1.36,-0.38 3.12,-3.45 2.88,-7.7 0.45,3.93 -0.23,6.19 5.58,8.89 0,0 7.72,1.93 10.03,9.5 0.65,2.11 2.25,5.26 3.07,8.4 0,0 1.35,-23.12 -12.09,-27.1 -8.47,-2.51 -14.9,1.23 -14.9,1.23 0,0 -11.82,7.93 -7.1,24.45"
         id="path117" />
      <path
         class="cls-18"
         d="m 1136.19,552.59 c 19.33,17.37 24.98,55.52 36.25,161.24 l -107.93,0.23 c 0,0 3.8,-135.69 32.04,-161.2 l 39.63,-0.28 z"
         id="path119" />
      <path
         class="cls-17"
         d="m 1054.99,525.42 c 0,0 -13.35,17.29 -15.31,21.41 -1.95,4.12 -2.61,4.99 0,7.38 2.6,2.39 18.67,8.25 35.17,7.16 16.5,-1.08 18.23,-2.17 18.23,-2.17 0,0 4.78,-0.22 5.43,-7.16 0.65,-6.94 -0.87,-10.2 -0.87,-10.2 0,0 -2.17,-0.87 -4.78,0.43 -2.6,1.3 -5.21,7.6 -7.38,9.12 -2.17,1.52 -27.2,-6.23 -27.2,-6.23 l 8.46,-9.87 z"
         id="path121" />
    </g>
  </g>
  <g
     class="cls-26"
     clip-path="url(#clippath-8)"
     id="g131"
     transform="translate(-831.57629,-401.91513)">
    <g
       class="cls-24"
       clip-path="url(#clippath-9)"
       id="g129">
      <path
         class="cls-15"
         d="m 1071.19,562.99 c 0,0 -2.02,-8.83 1.55,-14.72 l 4.34,0.93 c 0,0 -2.01,9.3 -1.4,13.48 z"
         id="path127" />
    </g>
  </g>
  <g
     class="cls-29"
     clip-path="url(#clippath-10)"
     id="g161"
     transform="translate(-831.57629,-401.91513)">
    <g
       class="cls-1"
       clip-path="url(#clippath-11)"
       id="g159">
      <path
         class="cls-15"
         d="m 1171.03,519.85 c 0,0 10.87,16.96 13.77,22.02 2.84,4.97 4.81,12.29 -0.18,15.62 -3.73,2.49 -34.67,3.72 -45.52,0.77 0,0 -2.41,-0.26 -3.44,-1.98 -1.39,-2.32 0.1,-13.68 0.1,-13.68 0,0 3.61,-4.05 6.1,-1.99 0,0 0.43,-0.23 3.04,5.88 2.61,6.11 7.23,5.06 7.23,5.06 l 21.68,-5.74 -13.37,-15.25 10.6,-10.72 z"
         id="path133" />
      <path
         class="cls-15"
         d="m 928.45,602.32 c 0,0 4.36,28.48 4.52,36.43 0.16,7.95 -0.78,9.34 -1.32,12.09 -0.77,3.92 -3.13,6.43 2.59,10.9 1.38,1.08 5.2,0.84 5.2,0.84 0,0 -0.63,-3.77 0.97,-4.18 0,0 0.52,0.6 1.06,-3.57 0.53,-4.06 0.03,-8.54 0.03,-8.54 0,0 -0.72,-3.7 -0.84,-5.06 -0.66,-7.51 7.89,-31.54 7.89,-31.54 l -20.09,-7.37 z"
         id="path135" />
      <path
         class="cls-16"
         d="m 942.59,616.63 c 0,0 -7.17,40.61 -7.62,73.8 29.38,0.14 69.93,0.12 92.62,0.37 -5.35,-26.02 -4.72,-60.91 -11.78,-76.48"
         id="path137" />
      <path
         class="cls-12"
         d="m 949.54,435.42 c 0,0 5.14,-4.87 13.57,-5.39 7.9,-0.48 14.98,5.58 18.13,15.65 0,0 2.52,19.52 10.39,26.45 5.23,4.61 15.24,7.5 14.87,20.43 l -0.37,12.94 -70.75,12.2 c 0,0 -7.82,-10.3 -3.93,-19.63 3.9,-9.33 13.72,-12.58 13.26,-19.96 -0.95,-15.12 -6.82,-31.64 4.83,-42.7"
         id="path139" />
      <path
         class="cls-19"
         d="m 952.91,498.96 c 0,0 -15.92,9.79 -19.18,19.03 -3.26,9.24 1.39,17.03 1.39,17.03 0,0 2.88,4.59 -4.08,12.3 -6.27,6.93 0.33,7.84 -9.38,28.09 -4.3,8.98 0.08,29.67 8.45,38.69 l 10.19,-4.69 c 0,0 1.13,5 2.63,7.33 0,0 7.1,0.46 29.14,0.46 38.53,0 42.17,-0.7 42.17,-0.7 l 11.76,1.16 c 0,0 7.8,-3.02 4.78,-27.76 -2.1,-17.24 -8.96,-19.97 -9.46,-32.62 -0.5,-12.6 5.77,-37.32 -8.42,-51.24 0,0 -15.02,-8.38 -20.8,-10.72 0,0 0.86,-4.75 -1.94,-10.47 0,0 -6.38,-1.16 -12.2,-1.15 -5.78,0.01 -9.01,-0.13 -14.65,1.21 -5.82,1.39 -10.51,0.76 -11.09,6.9 -0.58,6.14 0.7,7.16 0.7,7.16"
         id="path141" />
      <path
         class="cls-15"
         d="m 948.81,455.76 c 1.21,14.19 7.25,19.5 11.55,21.9 1.82,1.02 2.99,2.88 3.13,4.96 l 0.28,4.29 c 0.2,3.01 -1.29,5.88 -3.87,7.46 l -2.89,1.76 c 0,0 3.92,14.14 11.62,6.64 6.19,-6.03 12.3,-13.06 12.3,-13.06 0,0 -2.68,-2.49 -2.51,-12.23 0.07,-3.61 0.29,-4.57 0.84,-11.61 0.72,-9.17 -4.38,-21.07 -4.38,-21.07 0,0 -5.34,-9.25 -17.35,-4.19 -12.01,5.06 -8.73,15.15 -8.73,15.15"
         id="path143" />
      <path
         class="cls-12"
         d="m 959.95,440.72 c 0,0 -1.81,17.86 -10.8,21.9 -0.92,-0.23 -3.17,1.01 -3.17,1.01 0,0 -4.02,-22.07 8.19,-27.08 12.21,-5.01 15.88,0.37 15.88,0.37 l 3.72,3.83 c 0,0 2.38,14.57 -14.79,17.34"
         id="path145" />
      <path
         class="cls-18"
         d="m 1025.98,620.09 h -43.71 c -1.71,0 -3.09,1.39 -3.09,3.1 v 28.18 c 0,1.71 1.38,3.1 3.09,3.1 h 43.71 c 1.71,0 3.09,-1.39 3.09,-3.1 v -28.18 c 0,-1.71 -1.39,-3.1 -3.09,-3.1"
         id="path147" />
      <path
         class="cls-15"
         d="m 1025.06,617.03 c -1.26,6.1 -1.3,8.77 -2.16,14.94 -1.14,8.15 0.88,23.43 -9.2,26.51 -1.24,0.38 -3.12,0.94 -4.32,0.53 -2.55,-0.87 0.01,-2.07 -1.26,-3.72 -0.78,0.78 -2.84,3.36 -3.82,1.84 -0.9,-1.39 1.18,-3.59 1.62,-4.84 0.66,-1.9 0.45,-4.07 2.02,-5.59 2.15,-2.09 5.34,-1.77 5.87,-5.91 0.53,-4.14 -3.2,-21.93 -3.83,-28.16"
         id="path149" />
      <path
         class="cls-11"
         d="m 951.36,495.78 c 1.41,4.7 2.9,9.53 6.02,13.31 3.12,3.79 8.32,6.3 12.99,4.81 2.37,-0.75 4.33,-2.42 6.11,-4.15 4.99,-4.87 12.47,-13.09 18.88,-15.85"
         id="path151" />
      <path
         class="cls-12"
         d="m 1149.1,595.75 c 0,0 -6.07,41.12 -7.16,53.52 -1.1,12.4 -5.15,13.07 -2.12,65.43 h 90.44 c 0,0 -6.23,-73.09 -13.16,-92.79 -6.93,-19.7 -10.43,-26.53 -10.43,-26.53 z"
         id="path153" />
      <path
         class="cls-20"
         d="m 1163.6,462.81 c -0.03,0.19 -0.06,0.38 -0.1,0.57 -0.06,0.3 -0.13,0.62 -0.34,0.85 -0.46,0.51 -1.28,0.33 -1.95,0.48 -0.85,0.18 -1.49,0.94 -1.77,1.77 -0.28,0.83 -0.27,1.72 -0.26,2.59 0.02,1.47 0.04,2.97 0.59,4.33 0.54,1.36 1.71,2.58 3.17,2.72 0.48,0.05 0.99,0 1.41,0.23 0.55,0.32 1.08,3.5 1.59,4.77 1.48,3.7 4.75,7.83 4.75,7.83 l -1.71,18.2 -15.34,5.85 14.73,54.39 16.62,1.89 19.26,-60.81 c 0,0 -15.1,-3.45 -16.19,-3.99 l -1.23,-11.85 c 0,0 7.64,-4.77 9.11,-21.49 1.26,-14.3 -4.25,-23.84 -4.25,-23.84 l -27.63,6.15 c -0.11,3.15 0.03,6.27 -0.47,9.38"
         id="path155" />
      <path
         class="cls-15"
         d="m 1198.25,506.45 c 1.47,-0.49 4.87,1.57 6.14,2.11 3.71,1.59 7.38,3.37 10.85,5.45 3.65,2.18 5.51,3.91 7.15,7.85 2.03,4.9 2.68,10.22 3.79,15.36 1.19,5.5 2.8,11.02 4.57,16.36 1.32,3.99 3.62,7.55 5.21,11.42 1.72,4.18 0.86,6.27 -0.29,10.48 -0.49,1.78 -0.93,4.47 -0.52,6.32 0.3,1.34 1.46,2.39 1.85,3.72 1.33,4.58 -2.08,6.96 -6.21,7.47 -1.96,0.24 -4.07,0.16 -6,-0.27 -2.71,-0.6 -5.47,-0.48 -8.19,-1.13 -7.57,-1.81 -8.58,-12.27 -7.41,-18.58 -2.66,1.35 -4.12,4.96 -3.9,7.84 v 0 c 0.37,4.86 6.23,10.41 1.37,14.52 l -57.57,0.37 c -1.1,4.81 -2.3,9.61 -3.29,14.45 -0.53,2.6 -0.41,4.87 -2.8,6.4 -2.75,1.75 -6.47,1.41 -9.4,0.46 -8.81,-2.89 -11.94,-17.11 -9.93,-25.05 1.12,-4.41 3.53,-8.29 5.39,-12.4 2.01,-4.46 2.91,-9.21 3.6,-14.04 1.51,-10.55 1.45,-21.25 2.76,-31.82 0.53,-4.28 2,-8.52 3.89,-12.34 3.15,-6.36 14.05,-8.52 20.15,-10.76 0.99,-0.36 2.92,-5.4 4.39,-6.92 0.98,-1.01 5.05,-3.19 5.63,-3.39 -0.21,4.94 -0.39,6.56 -0.39,6.56 0,0 -3.88,2.47 -5.07,6.05 -0.55,1.67 7.55,37.15 8.05,45.59 0,0 13.62,-36.16 21.61,-50.64 0,0 -3.17,-1.29 -5.26,-1.93 l -0.9,-7.55 c 0,0 5.7,0.79 7.69,3.03 1.99,2.24 3.03,5.01 3.03,5.01"
         id="path157" />
    </g>
  </g>
  <g
     class="cls-23"
     clip-path="url(#clippath-12)"
     id="g169"
     transform="translate(-831.57629,-401.91513)">
    <g
       class="cls-3"
       clip-path="url(#clippath-13)"
       id="g167">
      <path
         class="cls-8"
         d="m 1160.05,509.71 c -2.45,4.08 -0.61,0.19 -10.37,16.42 l 15.69,-4.13"
         id="path163" />
      <path
         class="cls-8"
         d="m 1198.48,506.1 c 2.79,6.99 7.18,22.63 7.18,22.63 l -19.64,-4.34"
         id="path165" />
    </g>
  </g>
  <g
     class="cls-27"
     clip-path="url(#clippath-14)"
     id="g191"
     style="display:inline"
     transform="translate(-831.57629,-401.91513)">
    <g
       class="cls-4"
       clip-path="url(#clippath-15)"
       id="g189">
      <path
         class="cls-20"
         d="m 1215.29,591.62 c 0.6,6.52 1.11,13.05 1.54,19.59 0.57,8.62 2.81,21.16 -2.4,28.63 -1.91,2.73 -2.79,3.54 -2.78,7 0,1.6 0.24,3.43 0,5.01 -0.18,1.19 -1.59,3.28 -1.13,4.52 1.41,3.8 8.17,0.05 9.68,-1.69 6.25,-7.16 6.94,-20.27 8.02,-29.67 0.31,-2.73 3.3,-32.81 3.27,-32.81 0,0 -16.2,-0.59 -16.2,-0.59"
         id="path171" />
      <path
         class="cls-20"
         d="m 1142.46,620.25 c 0,0 -15.78,-9.98 -13.53,-17.71 2.26,-7.73 1.61,-7.41 7.41,-9.66 5.8,-2.26 7.08,9.02 10.63,12.56 3.54,3.54 5.15,5.47 5.15,5.47 l -5.15,19.97 c 0,0 -6.44,-7.73 -4.51,-10.63"
         id="path173" />
      <path
         class="cls-14"
         d="m 1166.76,453.64 c 0,0 0.8,12.33 -0.77,14.61 -1.57,2.28 -1.54,-4.76 -4.6,-3.47 l -1.79,-11.77 7.17,0.64 z"
         id="path175" />
      <circle
         class="cls-10"
         cx="1175.5"
         cy="467.32999"
         r="6.0900002"
         transform="rotate(-9.22,1175.1764,467.23334)"
         id="circle177" />
      <circle
         class="cls-10"
         cx="1191.39"
         cy="467.26001"
         r="6.0900002"
         transform="rotate(-9.22,1191.0367,467.13915)"
         id="circle179" />
      <line
         class="cls-10"
         x1="1181.4"
         y1="465.38"
         x2="1185.51"
         y2="465.38"
         id="line181" />
      <line
         class="cls-6"
         x1="1161.11"
         y1="464.23999"
         x2="1170.72"
         y2="463.63"
         id="line183" />
      <path
         class="cls-15"
         d="m 1179.54,480 c 0,0 6.69,0.24 10.58,-0.51 0,0 -0.19,3.71 -5,4.08 0,0 -4.49,0.64 -5.58,-3.57"
         id="path185" />
      <path
         class="cls-19"
         d="m 1194.47,454.48 c -0.2,-3.04 -0.15,-6.88 -0.14,-10.07 0.01,-5.11 -0.92,-11.48 -5.61,-14.46 -2.37,-1.51 -4.74,-2.08 -7.56,-1.86 -3.09,0.24 -3.17,1.04 -3.9,3.59 -0.7,2.43 -2.55,1.34 -4.77,1.43 -3.59,0.16 -4.49,2.15 -5.06,5.22 -0.59,3.15 -3.57,2.12 -6.17,3.48 -4.37,2.28 -5.95,7.49 -4.23,11.88 0.61,1.58 2.17,1.59 3.03,2.87"
         id="path187" />
    </g>
  </g>
</svg>
